{
  "version": "2.0",
  "licenses": [
    {
      "id": "http://go.microsoft.com/fwlink/?linkid=329770",
      "name": "http://go.microsoft.com/fwlink/?LinkId=329770",
      "url": "",
      "count": 76
    },
    {
      "id": "Apache-2.0",
      "name": "Apache License 2.0",
      "url": "https://opensource.org/licenses/Apache-2.0",
      "count": 2
    },
    {
      "id": "MIT",
      "name": "MIT License",
      "url": "https://opensource.org/licenses/MIT",
      "count": 2
    },
    {
      "id": "https://github.com/dotnet/corefx/blob/master/license.txt",
      "name": "https://github.com/dotnet/corefx/blob/master/LICENSE.TXT",
      "url": "",
      "count": 2
    },
    {
      "id": "unknown",
      "name": "unknown",
      "url": "",
      "count": 2
    },
    {
      "id": "LGPL-2.1",
      "name": "GNU Lesser General Public License v2.1 only",
      "url": "https://opensource.org/licenses/LGPL-2.1",
      "count": 1
    },
    {
      "id": "https://github.com/microsoft/chakracore/blob/master/license.txt",
      "name": "https://github.com/Microsoft/ChakraCore/blob/master/LICENSE.txt",
      "url": "",
      "count": 1
    },
    {
      "id": "https://raw.githubusercontent.com/antlr/antlrcs/master/license.txt",
      "name": "https://raw.githubusercontent.com/antlr/antlrcs/master/LICENSE.txt",
      "url": "",
      "count": 1
    },
    {
      "id": "https://raw.githubusercontent.com/nhibernate/nhibernate-core/master/license.txt",
      "name": "https://raw.githubusercontent.com/nhibernate/nhibernate-core/master/LICENSE.txt",
      "url": "",
      "count": 1
    }
  ],
  "dependencies": [
    {
      "name": "Antlr3.Runtime",
      "url": "",
      "description": "",
      "paths": [
        "."
      ],
      "licenses": [
        "https://raw.githubusercontent.com/antlr/antlrcs/master/license.txt"
      ]
    },
    {
      "name": "Iesi.Collections",
      "url": "",
      "description": "",
      "paths": [
        "."
      ],
      "licenses": [
        "unknown"
      ]
    },
    {
      "name": "Microsoft.ChakraCore",
      "url": "",
      "description": "",
      "paths": [
        "."
      ],
      "licenses": [
        "https://github.com/microsoft/chakracore/blob/master/license.txt"
      ]
    },
    {
      "name": "Microsoft.NETCore.Platforms",
      "url": "",
      "description": "",
      "paths": [
        "."
      ],
      "licenses": [
        "http://go.microsoft.com/fwlink/?linkid=329770"
      ]
    },
    {
      "name": "Microsoft.NETCore.Targets",
      "url": "",
      "description": "",
      "paths": [
        "."
      ],
      "licenses": [
        "http://go.microsoft.com/fwlink/?linkid=329770"
      ]
    },
    {
      "name": "Microsoft.Win32.Primitives",
      "url": "",
      "description": "",
      "paths": [
        "."
      ],
      "licenses": [
        "http://go.microsoft.com/fwlink/?linkid=329770"
      ]
    },
    {
      "name": "MvcMailer",
      "url": "",
      "description": "",
      "paths": [
        "."
      ],
      "licenses": [
        "MIT"
      ]
    },
    {
      "name": "NETStandard.Library",
      "url": "",
      "description": "",
      "paths": [
        "."
      ],
      "licenses": [
        "http://go.microsoft.com/fwlink/?linkid=329770"
      ]
    },
    {
      "name": "NHibernate",
      "url": "",
      "description": "",
      "paths": [
        "."
      ],
      "licenses": [
        "https://raw.githubusercontent.com/nhibernate/nhibernate-core/master/license.txt"
      ]
    },
    {
      "name": "NodaTime",
      "url": "",
      "description": "",
      "paths": [
        "."
      ],
      "licenses": [
        "Apache-2.0"
      ]
    },
    {
      "name": "Remotion.Linq",
      "url": "",
      "description": "",
      "paths": [
        "."
      ],
      "licenses": [
        "Apache-2.0"
      ]
    },
    {
      "name": "Remotion.Linq.EagerFetching",
      "url": "",
      "description": "",
      "paths": [
        "."
      ],
      "licenses": [
        "LGPL-2.1"
      ]
    },
    {
      "name": "System.AppContext",
      "url": "",
      "description": "",
      "paths": [
        "."
      ],
      "licenses": [
        "http://go.microsoft.com/fwlink/?linkid=329770"
      ]
    },
    {
      "name": "System.Buffers",
      "url": "",
      "description": "",
      "paths": [
        "."
      ],
      "licenses": [
        "http://go.microsoft.com/fwlink/?linkid=329770"
      ]
    },
    {
      "name": "System.Collections",
      "url": "",
      "description": "",
      "paths": [
        "."
      ],
      "licenses": [
        "http://go.microsoft.com/fwlink/?linkid=329770"
      ]
    },
    {
      "name": "System.Collections.Concurrent",
      "url": "",
      "description": "",
      "paths": [
        "."
      ],
      "licenses": [
        "http://go.microsoft.com/fwlink/?linkid=329770"
      ]
    },
    {
      "name": "System.Configuration.ConfigurationManager",
      "url": "",
      "description": "",
      "paths": [
        "."
      ],
      "licenses": [
        "https://github.com/dotnet/corefx/blob/master/license.txt"
      ]
    },
    {
      "name": "System.Console",
      "url": "",
      "description": "",
      "paths": [
        "."
      ],
      "licenses": [
        "http://go.microsoft.com/fwlink/?linkid=329770"
      ]
    },
    {
      "name": "System.Diagnostics.Debug",
      "url": "",
      "description": "",
      "paths": [
        "."
      ],
      "licenses": [
        "http://go.microsoft.com/fwlink/?linkid=329770"
      ]
    },
    {
      "name": "System.Diagnostics.DiagnosticSource",
      "url": "",
      "description": "",
      "paths": [
        "."
      ],
      "licenses": [
        "http://go.microsoft.com/fwlink/?linkid=329770"
      ]
    },
    {
      "name": "System.Diagnostics.Tools",
      "url": "",
      "description": "",
      "paths": [
        "."
      ],
      "licenses": [
        "http://go.microsoft.com/fwlink/?linkid=329770"
      ]
    },
    {
      "name": "System.Diagnostics.Tracing",
      "url": "",
      "description": "",
      "paths": [
        "."
      ],
      "licenses": [
        "http://go.microsoft.com/fwlink/?linkid=329770"
      ]
    },
    {
      "name": "System.Globalization",
      "url": "",
      "description": "",
      "paths": [
        "."
      ],
      "licenses": [
        "http://go.microsoft.com/fwlink/?linkid=329770"
      ]
    },
    {
      "name": "System.Globalization.Calendars",
      "url": "",
      "description": "",
      "paths": [
        "."
      ],
      "licenses": [
        "http://go.microsoft.com/fwlink/?linkid=329770"
      ]
    },
    {
      "name": "System.Globalization.Extensions",
      "url": "",
      "description": "",
      "paths": [
        "."
      ],
      "licenses": [
        "http://go.microsoft.com/fwlink/?linkid=329770"
      ]
    },
    {
      "name": "System.IO",
      "url": "",
      "description": "",
      "paths": [
        "."
      ],
      "licenses": [
        "http://go.microsoft.com/fwlink/?linkid=329770"
      ]
    },
    {
      "name": "System.IO.Compression",
      "url": "",
      "description": "",
      "paths": [
        "."
      ],
      "licenses": [
        "http://go.microsoft.com/fwlink/?linkid=329770"
      ]
    },
    {
      "name": "System.IO.Compression.ZipFile",
      "url": "",
      "description": "",
      "paths": [
        "."
      ],
      "licenses": [
        "http://go.microsoft.com/fwlink/?linkid=329770"
      ]
    },
    {
      "name": "System.IO.FileSystem",
      "url": "",
      "description": "",
      "paths": [
        "."
      ],
      "licenses": [
        "http://go.microsoft.com/fwlink/?linkid=329770"
      ]
    },
    {
      "name": "System.IO.FileSystem.Primitives",
      "url": "",
      "description": "",
      "paths": [
        "."
      ],
      "licenses": [
        "http://go.microsoft.com/fwlink/?linkid=329770"
      ]
    },
    {
      "name": "System.Linq",
      "url": "",
      "description": "",
      "paths": [
        "."
      ],
      "licenses": [
        "http://go.microsoft.com/fwlink/?linkid=329770"
      ]
    },
    {
      "name": "System.Linq.Expressions",
      "url": "",
      "description": "",
      "paths": [
        "."
      ],
      "licenses": [
        "http://go.microsoft.com/fwlink/?linkid=329770"
      ]
    },
    {
      "name": "System.Linq.Queryable",
      "url": "",
      "description": "",
      "paths": [
        "."
      ],
      "licenses": [
        "http://go.microsoft.com/fwlink/?linkid=329770"
      ]
    },
    {
      "name": "System.Net.Http",
      "url": "",
      "description": "",
      "paths": [
        "."
      ],
      "licenses": [
        "http://go.microsoft.com/fwlink/?linkid=329770"
      ]
    },
    {
      "name": "System.Net.Primitives",
      "url": "",
      "description": "",
      "paths": [
        "."
      ],
      "licenses": [
        "http://go.microsoft.com/fwlink/?linkid=329770"
      ]
    },
    {
      "name": "System.Net.Sockets",
      "url": "",
      "description": "",
      "paths": [
        "."
      ],
      "licenses": [
        "http://go.microsoft.com/fwlink/?linkid=329770"
      ]
    },
    {
      "name": "System.ObjectModel",
      "url": "",
      "description": "",
      "paths": [
        "."
      ],
      "licenses": [
        "http://go.microsoft.com/fwlink/?linkid=329770"
      ]
    },
    {
      "name": "System.Reflection",
      "url": "",
      "description": "",
      "paths": [
        "."
      ],
      "licenses": [
        "http://go.microsoft.com/fwlink/?linkid=329770"
      ]
    },
    {
      "name": "System.Reflection.Emit",
      "url": "",
      "description": "",
      "paths": [
        "."
      ],
      "licenses": [
        "http://go.microsoft.com/fwlink/?linkid=329770"
      ]
    },
    {
      "name": "System.Reflection.Emit.ILGeneration",
      "url": "",
      "description": "",
      "paths": [
        "."
      ],
      "licenses": [
        "http://go.microsoft.com/fwlink/?linkid=329770"
      ]
    },
    {
      "name": "System.Reflection.Emit.Lightweight",
      "url": "",
      "description": "",
      "paths": [
        "."
      ],
      "licenses": [
        "http://go.microsoft.com/fwlink/?linkid=329770"
      ]
    },
    {
      "name": "System.Reflection.Extensions",
      "url": "",
      "description": "",
      "paths": [
        "."
      ],
      "licenses": [
        "http://go.microsoft.com/fwlink/?linkid=329770"
      ]
    },
    {
      "name": "System.Reflection.Primitives",
      "url": "",
      "description": "",
      "paths": [
        "."
      ],
      "licenses": [
        "http://go.microsoft.com/fwlink/?linkid=329770"
      ]
    },
    {
      "name": "System.Reflection.TypeExtensions",
      "url": "",
      "description": "",
      "paths": [
        "."
      ],
      "licenses": [
        "http://go.microsoft.com/fwlink/?linkid=329770"
      ]
    },
    {
      "name": "System.Resources.ResourceManager",
      "url": "",
      "description": "",
      "paths": [
        "."
      ],
      "licenses": [
        "http://go.microsoft.com/fwlink/?linkid=329770"
      ]
    },
    {
      "name": "System.Runtime",
      "url": "",
      "description": "",
      "paths": [
        "."
      ],
      "licenses": [
        "http://go.microsoft.com/fwlink/?linkid=329770"
      ]
    },
    {
      "name": "System.Runtime.Extensions",
      "url": "",
      "description": "",
      "paths": [
        "."
      ],
      "licenses": [
        "http://go.microsoft.com/fwlink/?linkid=329770"
      ]
    },
    {
      "name": "System.Runtime.Handles",
      "url": "",
      "description": "",
      "paths": [
        "."
      ],
      "licenses": [
        "http://go.microsoft.com/fwlink/?linkid=329770"
      ]
    },
    {
      "name": "System.Runtime.InteropServices",
      "url": "",
      "description": "",
      "paths": [
        "."
      ],
      "licenses": [
        "http://go.microsoft.com/fwlink/?linkid=329770"
      ]
    },
    {
      "name": "System.Runtime.InteropServices.RuntimeInformation",
      "url": "",
      "description": "",
      "paths": [
        "."
      ],
      "licenses": [
        "http://go.microsoft.com/fwlink/?linkid=329770"
      ]
    },
    {
      "name": "System.Runtime.Numerics",
      "url": "",
      "description": "",
      "paths": [
        "."
      ],
      "licenses": [
        "http://go.microsoft.com/fwlink/?linkid=329770"
      ]
    },
    {
      "name": "System.Runtime.Serialization.Formatters",
      "url": "",
      "description": "",
      "paths": [
        "."
      ],
      "licenses": [
        "http://go.microsoft.com/fwlink/?linkid=329770"
      ]
    },
    {
      "name": "System.Runtime.Serialization.Primitives",
      "url": "",
      "description": "",
      "paths": [
        "."
      ],
      "licenses": [
        "http://go.microsoft.com/fwlink/?linkid=329770"
      ]
    },
    {
      "name": "System.Security.Cryptography.Algorithms",
      "url": "",
      "description": "",
      "paths": [
        "."
      ],
      "licenses": [
        "http://go.microsoft.com/fwlink/?linkid=329770"
      ]
    },
    {
      "name": "System.Security.Cryptography.Cng",
      "url": "",
      "description": "",
      "paths": [
        "."
      ],
      "licenses": [
        "http://go.microsoft.com/fwlink/?linkid=329770"
      ]
    },
    {
      "name": "System.Security.Cryptography.Csp",
      "url": "",
      "description": "",
      "paths": [
        "."
      ],
      "licenses": [
        "http://go.microsoft.com/fwlink/?linkid=329770"
      ]
    },
    {
      "name": "System.Security.Cryptography.Encoding",
      "url": "",
      "description": "",
      "paths": [
        "."
      ],
      "licenses": [
        "http://go.microsoft.com/fwlink/?linkid=329770"
      ]
    },
    {
      "name": "System.Security.Cryptography.OpenSsl",
      "url": "",
      "description": "",
      "paths": [
        "."
      ],
      "licenses": [
        "http://go.microsoft.com/fwlink/?linkid=329770"
      ]
    },
    {
      "name": "System.Security.Cryptography.Primitives",
      "url": "",
      "description": "",
      "paths": [
        "."
      ],
      "licenses": [
        "http://go.microsoft.com/fwlink/?linkid=329770"
      ]
    },
    {
      "name": "System.Security.Cryptography.ProtectedData",
      "url": "",
      "description": "",
      "paths": [
        "."
      ],
      "licenses": [
        "https://github.com/dotnet/corefx/blob/master/license.txt"
      ]
    },
    {
      "name": "System.Security.Cryptography.X509Certificates",
      "url": "",
      "description": "",
      "paths": [
        "."
      ],
      "licenses": [
        "http://go.microsoft.com/fwlink/?linkid=329770"
      ]
    },
    {
      "name": "System.Text.Encoding",
      "url": "",
      "description": "",
      "paths": [
        "."
      ],
      "licenses": [
        "http://go.microsoft.com/fwlink/?linkid=329770"
      ]
    },
    {
      "name": "System.Text.Encoding.Extensions",
      "url": "",
      "description": "",
      "paths": [
        "."
      ],
      "licenses": [
        "http://go.microsoft.com/fwlink/?linkid=329770"
      ]
    },
    {
      "name": "System.Text.RegularExpressions",
      "url": "",
      "description": "",
      "paths": [
        "."
      ],
      "licenses": [
        "http://go.microsoft.com/fwlink/?linkid=329770"
      ]
    },
    {
      "name": "System.Threading",
      "url": "",
      "description": "",
      "paths": [
        "."
      ],
      "licenses": [
        "http://go.microsoft.com/fwlink/?linkid=329770"
      ]
    },
    {
      "name": "System.Threading.Tasks",
      "url": "",
      "description": "",
      "paths": [
        "."
      ],
      "licenses": [
        "http://go.microsoft.com/fwlink/?linkid=329770"
      ]
    },
    {
      "name": "System.Threading.Tasks.Extensions",
      "url": "",
      "description": "",
      "paths": [
        "."
      ],
      "licenses": [
        "http://go.microsoft.com/fwlink/?linkid=329770"
      ]
    },
    {
      "name": "System.Threading.Timer",
      "url": "",
      "description": "",
      "paths": [
        "."
      ],
      "licenses": [
        "http://go.microsoft.com/fwlink/?linkid=329770"
      ]
    },
    {
      "name": "System.Xml.ReaderWriter",
      "url": "",
      "description": "",
      "paths": [
        "."
      ],
      "licenses": [
        "http://go.microsoft.com/fwlink/?linkid=329770"
      ]
    },
    {
      "name": "System.Xml.XDocument",
      "url": "",
      "description": "",
      "paths": [
        "."
      ],
      "licenses": [
        "http://go.microsoft.com/fwlink/?linkid=329770"
      ]
    },
    {
      "name": "T4Scaffolding.Core",
      "url": "",
      "description": "",
      "paths": [
        "."
      ],
      "licenses": [
        "unknown"
      ]
    },
    {
      "name": "jive",
      "url": "",
      "description": "",
      "paths": [
        "."
      ],
      "licenses": [
        "MIT"
      ]
    },
    {
      "name": "runtime.debian.8-x64.runtime.native.System.Security.Cryptography.OpenSsl",
      "url": "",
      "description": "",
      "paths": [
        "."
      ],
      "licenses": [
        "http://go.microsoft.com/fwlink/?linkid=329770"
      ]
    },
    {
      "name": "runtime.fedora.23-x64.runtime.native.System.Security.Cryptography.OpenSsl",
      "url": "",
      "description": "",
      "paths": [
        "."
      ],
      "licenses": [
        "http://go.microsoft.com/fwlink/?linkid=329770"
      ]
    },
    {
      "name": "runtime.fedora.24-x64.runtime.native.System.Security.Cryptography.OpenSsl",
      "url": "",
      "description": "",
      "paths": [
        "."
      ],
      "licenses": [
        "http://go.microsoft.com/fwlink/?linkid=329770"
      ]
    },
    {
      "name": "runtime.native.System",
      "url": "",
      "description": "",
      "paths": [
        "."
      ],
      "licenses": [
        "http://go.microsoft.com/fwlink/?linkid=329770"
      ]
    },
    {
      "name": "runtime.native.System.IO.Compression",
      "url": "",
      "description": "",
      "paths": [
        "."
      ],
      "licenses": [
        "http://go.microsoft.com/fwlink/?linkid=329770"
      ]
    },
    {
      "name": "runtime.native.System.Net.Http",
      "url": "",
      "description": "",
      "paths": [
        "."
      ],
      "licenses": [
        "http://go.microsoft.com/fwlink/?linkid=329770"
      ]
    },
    {
      "name": "runtime.native.System.Security.Cryptography.Apple",
      "url": "",
      "description": "",
      "paths": [
        "."
      ],
      "licenses": [
        "http://go.microsoft.com/fwlink/?linkid=329770"
      ]
    },
    {
      "name": "runtime.native.System.Security.Cryptography.OpenSsl",
      "url": "",
      "description": "",
      "paths": [
        "."
      ],
      "licenses": [
        "http://go.microsoft.com/fwlink/?linkid=329770"
      ]
    },
    {
      "name": "runtime.opensuse.13.2-x64.runtime.native.System.Security.Cryptography.OpenSsl",
      "url": "",
      "description": "",
      "paths": [
        "."
      ],
      "licenses": [
        "http://go.microsoft.com/fwlink/?linkid=329770"
      ]
    },
    {
      "name": "runtime.opensuse.42.1-x64.runtime.native.System.Security.Cryptography.OpenSsl",
      "url": "",
      "description": "",
      "paths": [
        "."
      ],
      "licenses": [
        "http://go.microsoft.com/fwlink/?linkid=329770"
      ]
    },
    {
      "name": "runtime.osx.10.10-x64.runtime.native.System.Security.Cryptography.Apple",
      "url": "",
      "description": "",
      "paths": [
        "."
      ],
      "licenses": [
        "http://go.microsoft.com/fwlink/?linkid=329770"
      ]
    },
    {
      "name": "runtime.osx.10.10-x64.runtime.native.System.Security.Cryptography.OpenSsl",
      "url": "",
      "description": "",
      "paths": [
        "."
      ],
      "licenses": [
        "http://go.microsoft.com/fwlink/?linkid=329770"
      ]
    },
    {
      "name": "runtime.rhel.7-x64.runtime.native.System.Security.Cryptography.OpenSsl",
      "url": "",
      "description": "",
      "paths": [
        "."
      ],
      "licenses": [
        "http://go.microsoft.com/fwlink/?linkid=329770"
      ]
    },
    {
      "name": "runtime.ubuntu.14.04-x64.runtime.native.System.Security.Cryptography.OpenSsl",
      "url": "",
      "description": "",
      "paths": [
        "."
      ],
      "licenses": [
        "http://go.microsoft.com/fwlink/?linkid=329770"
      ]
    },
    {
      "name": "runtime.ubuntu.16.04-x64.runtime.native.System.Security.Cryptography.OpenSsl",
      "url": "",
      "description": "",
      "paths": [
        "."
      ],
      "licenses": [
        "http://go.microsoft.com/fwlink/?linkid=329770"
      ]
    },
    {
      "name": "runtime.ubuntu.16.10-x64.runtime.native.System.Security.Cryptography.OpenSsl",
      "url": "",
      "description": "",
      "paths": [
        "."
      ],
      "licenses": [
        "http://go.microsoft.com/fwlink/?linkid=329770"
      ]
    }
  ]
}